{
	"name":        "getDate2",
	"description": "Report2: query is to get the current datetime value",

	"file":        "sql/getdate2.sql",
	"primary key": [
		"ServerName"
	],
	"storage": "report",
	"savehistoryrecords": false,
	"parameters":  [
		{
			"database":  "true",
			"interface": "true",
			"name":      "",
			"text":      "Database",
			"type":      "String",
			"value":     "",
			"show":      "List",
			"query": {
				"file":       "sql/GetListOfDatabases.sql",
				"columnMax":  "",
				"columnMin":  "",
				"columnName": "DatabaseName"
			}
		},
		{
			"database":  "false",
			"interface": "false",
			"name":      "@intNumberOfSeconds",
			"text":      "",
			"type":      "Integer",
			"value":     "30",
			"show":      "",
			"query":     {}
		},
		{
			"database":  "false",
			"interface": "true",
			"name":      "@intNumberOfHours",
			"text":      "NumberOfHours",
			"type":      "Integer",
			"value":     "",
			"show":      "Number",
			"query":     {
				"file":       "sql/getMaxMinValues.sql",
				"columnMax":  "intMaxNumberOfHours",
				"columnMin":  "intMaxNumberOfHours",
				"columnName": ""
			}
		},
		{
			"database":  "false",
			"interface": "true",
			"name":      "@strDescription",
			"text":      "Description",
			"type":      "String",
			"value":     "",
			"show":      "Text",
			"query":     {}
		},
		{
			"database":  "false",
			"interface": "true",
			"name":      "@strDateValue",
			"text":      "TextValue",
			"type":      "date",
			"value":     "",
			"show":      "Text",
			"query":     {}
		}
	],

	"component": {
		"name": "tableRawReport"
	}
}
