{
	"name":        "getInstanceConnections",
	"description": "active server connections",

	"file":        "sql/getInstanceConnections.sql",
	"primary key": [
		"SessionID",
		"SessionNetTransport"
	],
	"storage": "report",
	"savehistoryrecords": false,

	"parameters": [
	],

	"component": {
		"name": "tableRawReport"
	}
}
