{
	"name":        "getBarReport",
	"description": "Report: bar values Graphic",

	"file":        "sql/getBarReport.sql",
	"primary key": [
		"Name"
	],
	"storage": "report",
	"savehistoryrecords": false,

	"parameters": [
	],

	"component": {
		"name": "graphBarReport"
	}
}
